Simulation of Ecological Data: Poisson regression
…
  3990    3.417402 -0.0666453205 -1.917314 -126.9008
  3991    3.417770 -0.0615765660 -1.917340 -126.9309
  3992    3.400546 -0.0768048942 -1.917398 -126.9511
  3993    3.388917 -0.0631798497 -1.917651 -127.3905
  3994    3.346079 -0.0878724581 -1.918079 -128.7729
  3995    3.395664 -0.0999750855 -1.917301 -127.6952
  3996    3.408572 -0.0820008423 -1.917299 -127.0531
  3997    3.457603 -0.0341925262 -1.917215 -128.0718
  3998    3.350339 -0.0977933157 -1.917872 -128.4592
  3999    3.437773 -0.0491774344 -1.917260 -127.2681
  4000    3.435801 -0.0728486300 -1.917197 -127.3713
attr(,"nchains")
[1] 4

# A tibble: 160,000 x 9
# Groups:   tide, log_average, count_average, obs_limpets, .row [40]
    tide log_average count_average obs_limpets  .row .chain .iteration
   <dbl>       <dbl>         <dbl>       <int> <int>  <int>      <int>
 1 -1.16        3.52          33.9          26     1     NA         NA
 2 -1.16        3.52          33.9          26     1     NA         NA
 3 -1.16        3.52          33.9          26     1     NA         NA
 4 -1.16        3.52          33.9          26     1     NA         NA
 5 -1.16        3.52          33.9          26     1     NA         NA
 6 -1.16        3.52          33.9          26     1     NA         NA
 7 -1.16        3.52          33.9          26     1     NA         NA
 8 -1.16        3.52          33.9          26     1     NA         NA
 9 -1.16        3.52          33.9          26     1     NA         NA
10 -1.16        3.52          33.9          26     1     NA         NA
# ... with 159,990 more rows, and 2 more variables: .draw <int>,
#   .prediction <int>

# A tibble: 40 x 5
     tide log_average count_average obs_limpets .prediction
    <dbl>       <dbl>         <dbl>       <int>      <rvar>
 1 -1.16         3.52          33.9          26    33  5.9
 2 -1.28         3.54          34.3          36    33  6.0
 3 -0.656        3.47          32.1          34    32  5.7
 4 -1.50         3.56          35.1          30    34  5.9
 5 -2.24         3.64          38.0          41    35  6.2
 6 -0.971        3.50          33.2          29    32  5.8
 7 -0.268        3.43          30.9          36    31  5.6
 8 -1.44         3.55          34.9          31    33  5.9
 9 -0.166        3.42          30.5          27    31  5.7
10 -1.19         3.53          34.0          23    33  5.8
# ... with 30 more rows
