Poisson regression
…
  3990    3.377119 -0.1042994394 -1.917180 -129.9411
  3991    3.418594 -0.0628815883 -1.917185 -129.6677
  3992    3.454218 -0.0738278774 -1.917363 -129.5351
  3993    3.379493 -0.0873310059 -1.917211 -130.0212
  3994    3.430803 -0.0679310376 -1.917193 -129.2023
  3995    3.370670 -0.1020734602 -1.917188 -130.0807
  3996    3.501450 -0.0461460017 -1.917514 -130.6453
  3997    3.449889 -0.0465654211 -1.917182 -129.8440
  3998    3.434052 -0.0502809945 -1.917184 -130.0030
  3999    3.432835 -0.0567500167 -1.917180 -129.6034
  4000    3.435401 -0.0622664719 -1.917188 -129.3056
attr(,"nchains")
[1] 4

# A tibble: 160,000 x 9
# Groups:   tide, log_average, count_average, obs_limpets, .row [40]
    tide log_average count_average obs_limpets  .row .chain .iteration
   <dbl>       <dbl>         <dbl>       <int> <int>  <int>      <int>
 1 -2.91        3.71          40.8          33     1     NA         NA
 2 -2.91        3.71          40.8          33     1     NA         NA
 3 -2.91        3.71          40.8          33     1     NA         NA
 4 -2.91        3.71          40.8          33     1     NA         NA
 5 -2.91        3.71          40.8          33     1     NA         NA
 6 -2.91        3.71          40.8          33     1     NA         NA
 7 -2.91        3.71          40.8          33     1     NA         NA
 8 -2.91        3.71          40.8          33     1     NA         NA
 9 -2.91        3.71          40.8          33     1     NA         NA
10 -2.91        3.71          40.8          33     1     NA         NA
# ... with 159,990 more rows, and 2 more variables: .draw <int>,
#   .prediction <int>

# A tibble: 40 x 5
     tide log_average count_average obs_limpets .prediction
    <dbl>       <dbl>         <dbl>       <int>      <rvar>
 1 -2.91         3.71          40.8          33    38 ± 6.5
 2 -2.38         3.65          38.6          40    37 ± 6.4
 3 -1.11         3.52          33.7          35    33 ± 5.8
 4 -1.52         3.56          35.2          30    35 ± 5.9
 5 -1.67         3.58          35.8          38    35 ± 6.1
 6 -0.782        3.48          32.6          29    33 ± 5.8
 7 -0.637        3.47          32.1          37    32 ± 5.7
 8 -1.97         3.61          36.9          33    36 ± 6.2
 9 -0.415        3.44          31.3          28    32 ± 5.7
10  0.340        3.37          28.9          19    30 ± 5.6
# ... with 30 more rows
